{
  "images" : [
    {
      "filename" : "calamian-card.jpg",
      "idiom" : "universal"
    }
  ],
  "info" : {
    "author" : "xcode",
    "version" : 1
  },
  "properties" : {
    "unit" : "inches",
    "width" : 7
  }
}
